…
library(p8105.datasets)
data("instacart")

##Exploratory analysis to look at generally what products, aisles, and how many of each product are ordered
instacart_df =
  select(instacart, product_name, department, add_to_cart_order, reordered) %>%
  mutate(number_order = add_to_cart_order + reordered) %>%
  arrange(department) %>%
  select(-add_to_cart_order, -reordered)

instacart_df
```

    ## # A tibble: 1,384,617 x 3
    ##    product_name                 department number_order
    ##    <chr>                        <chr>             <int>
    ##  1 Chardonnay Wine              alcohol               4
    ##  2 Sauvignon Blanc              alcohol               2
    ##  3 India Pale Ale               alcohol               6
    ##  4 Lucky 13 Ale                 alcohol               1
    ##  5 Triple Distilled Vodka       alcohol               2
    ##  6 American Concord Grape       alcohol               9
    ##  7 Vodka                        alcohol               2
    ##  8 Pinot Noir                   alcohol               8
    ##  9 Chardonnay Sonoma Coast 2008 alcohol               9
    ## 10 Chianti Classico             alcohol              10
    ## # … with 1,384,607 more rows
…
    ## [1] 134

``` r
#Finding the aisles where the most items are ordered from
group_by(aisles_df, aisle) %>%
  summarize(n = n()) %>%
  arrange(desc(n))
```

    ## # A tibble: 134 x 2
    ##    aisle                              n
    ##    <chr>                          <int>
    ##  1 fresh vegetables              150609
    ##  2 fresh fruits                  150473
    ##  3 packaged vegetables fruits     78493
    ##  4 yogurt                         55240
    ##  5 packaged cheese                41699
    ##  6 water seltzer sparkling water  36617
    ##  7 milk                           32644
    ##  8 chips pretzels                 31269
    ##  9 soy lactosefree                26240
    ## 10 bread                          23635
    ## # … with 124 more rows
…
\#\#Number of items ordered in each aisle

``` r
ordered_items = 
  group_by(aisles_df, aisle) %>%
  summarize(n = n()) %>%
  arrange(desc(n)) %>%
  filter(n > 10000) %>%
  mutate(number_item = (n)) %>%
  select(-n)

ordered_items
```

    ## # A tibble: 39 x 2
    ##    aisle                         number_item
    ##    <chr>                               <int>
    ##  1 fresh vegetables                   150609
    ##  2 fresh fruits                       150473
    ##  3 packaged vegetables fruits          78493
    ##  4 yogurt                              55240
    ##  5 packaged cheese                     41699
    ##  6 water seltzer sparkling water       36617
    ##  7 milk                                32644
    ##  8 chips pretzels                      31269
    ##  9 soy lactosefree                     26240
    ## 10 bread                               23635
    ## # … with 29 more rows
…
brfss_data
```

    ## # A tibble: 10,625 x 23
    ##     year locationabbr locationdesc class topic question response
    ##    <int> <chr>        <chr>        <chr> <chr> <chr>    <chr>   
    ##  1  2010 AL           AL - Jeffer… Heal… Over… How is … Poor    
    ##  2  2010 AL           AL - Mobile… Heal… Over… How is … Poor    
    ##  3  2010 AL           AL - Tuscal… Heal… Over… How is … Poor    
    ##  4  2010 AZ           AZ - Marico… Heal… Over… How is … Poor    
    ##  5  2010 AZ           AZ - Pima C… Heal… Over… How is … Poor    
    ##  6  2010 AZ           AZ - Pinal … Heal… Over… How is … Poor    
    ##  7  2010 AR           AR - Benton… Heal… Over… How is … Poor    
    ##  8  2010 AR           AR - Pulask… Heal… Over… How is … Poor    
    ##  9  2010 AR           AR - Washin… Heal… Over… How is … Poor    
    ## 10  2010 CA           CA - Alamed… Heal… Over… How is … Poor    
    ## # … with 10,615 more rows, and 16 more variables: sample_size <int>,
    ## #   data_value <dbl>, confidence_limit_low <dbl>,
    ## #   confidence_limit_high <dbl>, display_order <int>,
    ## #   data_value_unit <chr>, data_value_type <chr>,
    ## #   data_value_footnote_symbol <chr>, data_value_footnote <chr>,
    ## #   data_source <chr>, class_id <chr>, topic_id <chr>, location_id <chr>,
    ## #   question_id <chr>, respid <chr>, geo_location <chr>

## 2002 and 2010 states with 7 or more locations

``` r
year_data = 
  group_by(brfss_data, year) %>%
  filter(year == 2002) %>%
  group_by(locationabbr) %>%
  count(locationdesc)

year_data
```

    ## # A tibble: 157 x 3
    ## # Groups:   locationabbr [49]
    ##    locationabbr locationdesc                    n
    ##    <chr>        <chr>                       <int>
    ##  1 AK           AK - Anchorage Municipality     5
    ##  2 AL           AL - Jefferson County           5
    ##  3 AR           AR - Pulaski County             5
    ##  4 AZ           AZ - Maricopa County            5
    ##  5 AZ           AZ - Pima County                5
    ##  6 CA           CA - Los Angeles County         5
    ##  7 CO           CO - Adams County               5
    ##  8 CO           CO - Arapahoe County            5
    ##  9 CO           CO - Denver County              5
    ## 10 CO           CO - Jefferson County           5
    ## # … with 147 more rows
…
